<?xml version="1.0" encoding="UTF-8"?>
<svg width="1817px" height="502px" viewBox="0 0 1817 502" version="1.1" xmlns="http://www.w3.org/2000/svg" xmlns:xlink="http://www.w3.org/1999/xlink">
    <!-- Generator: Sketch 43.1 (39012) - http://www.bohemiancoding.com/sketch -->
    <title>Tartine full logo</title>
    <desc>Created with Sketch.</desc>
    <defs></defs>
    <g id="Page-1" stroke="none" stroke-width="1" fill="none" fill-rule="evenodd">
        <g id="Full-Logo" transform="translate(-47.000000, -46.000000)" fill="#D0011B">
            <path d="M694.67437,258.7 C699.441061,258.7 701.503367,261.299974 700.861352,266.5 C699.13866,273.433368 696.824826,283.399935 693.91978,296.4 C691.014735,309.400065 688.056232,322.833264 685.044184,336.7 C682.032136,350.566736 679.235466,363.566606 676.654091,375.7 C674.072716,387.833394 672.461044,396.499974 671.819029,401.7 C671.281353,404.300013 670.301974,410.258287 668.880861,419.575 C667.459748,428.891713 665.890532,438.749948 664.173165,449.15 C662.455799,459.550052 660.967499,469.191622 659.708221,478.075 C658.448944,486.958378 657.98381,492.699987 658.312805,495.3 C658.970796,500.500026 661.89976,503.1 667.099786,503.1 C669.699799,503.1 672.830389,504.724984 676.49165,507.975 C680.15291,511.225016 681.513054,515.124977 680.572122,519.675 C679.63119,524.225023 674.817726,528.991642 666.131588,533.975 C657.445449,538.958358 642.027802,542.966652 619.878184,546 C610.075965,547.300007 602.909666,545.458358 598.379072,540.475 C593.848478,535.491642 591.254224,530.400026 590.596234,525.2 C590.322071,523.033323 590.318077,520.433348 590.584252,517.4 C590.850428,514.366651 591.466349,509.816697 592.432035,503.75 C593.397721,497.683303 594.874975,489.666717 596.863842,479.7 C598.852709,469.733284 601.649379,456.733413 605.253935,440.7 L598.992693,437.45 C593.75381,447.416717 587.690802,458.574938 580.803488,470.925 C573.916174,483.275062 565.768769,495.083277 556.361029,506.35 C546.953288,517.616723 536.229331,527.041629 524.188836,534.625 C512.148341,542.208371 498.544926,546 483.378184,546 C479.044829,546 474.100007,544.591681 468.543569,541.775 C462.987131,538.958319 457.632402,535.166691 452.479221,530.4 C447.32604,525.633309 442.849015,520.216697 439.04801,514.15 C435.247006,508.083303 432.935294,501.800033 432.112805,495.3 C430.412995,481.8666 430.660529,466.700085 432.855414,449.8 C435.050298,432.899916 438.842718,415.78342 444.232786,398.45 C449.622855,381.11658 456.692658,364.216749 465.442407,347.75 C474.192157,331.283251 484.163509,316.76673 495.356762,304.2 C506.550014,291.63327 518.911332,281.450039 532.441084,273.65 C545.970837,265.849961 560.535534,261.95 576.135612,261.95 C590.869019,261.95 602.234191,264.441642 610.23147,269.425 C618.228748,274.408358 624.722962,279.499974 629.714308,284.7 L637.729103,265.85 C640.159293,261.08331 643.75768,258.7 648.52437,258.7 L694.67437,258.7 Z M506.748606,473.85 C507.68076,481.216704 509.62502,486.308319 512.581445,489.125 C515.53787,491.941681 519.616034,493.35 524.81606,493.35 C529.149415,493.35 535.181949,488.800046 542.913842,479.7 C550.645736,470.599955 558.388559,459.875062 566.142544,447.525 C573.896529,435.174938 581.095029,422.71673 587.738258,410.15 C594.381488,397.583271 598.808467,388.050033 601.019327,381.55 C603.822695,372.88329 606.055612,363.133388 607.718147,352.3 C609.380681,341.466613 609.499123,330.416723 608.073476,319.15 C607.141322,311.783297 603.149795,305.066697 596.098774,299 C589.047753,292.933303 582.272328,289.9 575.772296,289.9 C559.738882,289.9 545.353324,304.633186 532.61519,334.1 C519.822223,363.133479 511.805782,389.67488 508.565625,413.725 C505.325468,437.77512 504.719801,457.816587 506.748606,473.85 Z M756.855699,539.5 C751.222338,539.5 749.025615,537.550019 750.265463,533.65 L768.141215,428.35 C769.589744,419.249954 771.415417,408.850059 773.618289,397.15 C775.821162,385.449942 777.84846,374.075055 779.700246,363.025 C781.552032,351.974945 782.999208,342.008378 784.041817,333.125 C785.084427,324.241622 785.413813,318.283348 785.029985,315.25 C784.591325,311.783316 783.24622,308.858345 780.994631,306.475 C778.743042,304.091655 775.883949,302.9 772.417265,302.9 C771.550594,302.9 769.301701,302.250006 765.670519,300.95 C762.039338,299.649993 760.35686,297.483348 760.623035,294.45 C760.88921,291.416651 764.579558,287.191694 771.69419,281.775 C778.808822,276.358306 792.922488,269.750039 814.035612,261.95 C819.828147,259.783322 824.973263,259.349993 829.471116,260.65 C833.968968,261.950006 837.709759,264.116651 840.6936,267.15 C843.677441,270.183348 846.066076,273.64998 847.859575,277.55 C849.653075,281.450019 850.741722,284.916651 851.12555,287.95 C851.893206,294.016697 850.51457,304.524925 846.9896,319.475 C843.46463,334.425075 839.145588,352.51656 834.032345,373.75 L841.675836,377.65 C844.424372,368.549954 848.442774,357.500065 853.731165,344.5 C859.019556,331.499935 865.215649,318.825062 872.319631,306.475 C879.423613,294.124938 887.843845,283.61671 897.580581,274.95 C907.317317,266.28329 918.035554,261.95 929.735612,261.95 C939.268993,261.95 948.238479,265.199967 956.644339,271.7 C965.050199,278.200032 969.911047,286.649948 971.227029,297.05 C971.939852,302.683361 971.650259,308.099974 970.35824,313.3 C969.066221,318.500026 967.150313,323.04998 964.610457,326.95 C962.070602,330.850019 959.312789,333.883322 956.336935,336.05 C953.361082,338.216677 950.356526,339.3 947.323178,339.3 C938.223132,339.3 930.853877,337.566684 925.21519,334.1 L916.757203,328.9 C913.937859,327.166658 910.361564,326.3 906.028209,326.3 C900.828183,326.3 895.334648,329.116638 889.547439,334.75 C883.760229,340.383361 878.15131,347.424958 872.720513,355.875 C867.289716,364.325042 862.279952,373.533283 857.691072,383.5 C853.102192,393.466716 849.595372,402.566625 847.170507,410.8 C844.690809,418.600039 842.320812,427.266619 840.060445,436.8 C837.800077,446.333381 835.487575,457.166606 833.122867,469.3 L820.62996,534.95 C819.713782,537.983348 817.089054,539.5 812.755699,539.5 L756.855699,539.5 Z M1116.80307,281.45 L1182.45307,281.45 C1185.91975,281.45 1187.24982,283.399981 1186.4433,287.3 L1184.03176,304.2 C1183.22525,308.10002 1180.65535,310.05 1176.322,310.05 L1110.672,310.05 L1075.46666,453.05 C1074.3913,458.250026 1073.20897,464.316632 1071.91961,471.25 C1070.63026,478.183368 1070.23233,483.599981 1070.72582,487.5 C1071.16448,490.966684 1072.72625,493.891655 1075.41118,496.275 C1078.0961,498.658345 1081.82185,499.85 1086.58854,499.85 C1088.75522,499.85 1091.74873,500.391661 1095.56917,501.475 C1099.3896,502.558339 1102.70944,503.966658 1105.52878,505.7 C1108.34812,507.433342 1109.82764,509.708319 1109.96739,512.525 C1110.10713,515.341681 1107.78265,518.374984 1102.99387,521.625 C1098.20509,524.875016 1090.32957,528.558313 1079.36709,532.675 C1068.40461,536.791687 1052.82513,541.23331 1032.62818,546 C1027.15932,547.300007 1022.28437,547.300007 1018.00318,546 C1013.722,544.699993 1010.00862,542.750013 1006.86295,540.15 C1003.71727,537.549987 1001.18051,534.625016 999.252594,531.375 C997.324675,528.124984 996.196235,525.200013 995.86724,522.6 C995.044751,516.099968 994.73652,509.383368 994.942538,502.45 C995.148556,495.516632 996.140312,488.800033 997.917836,482.3 L1035.272,310.05 L984.571998,310.05 C980.238643,310.05 978.637081,307.66669 979.767265,302.9 L981.528805,286 C982.444983,282.966651 984.636382,281.45 988.103066,281.45 L1042.05307,281.45 L1065.14479,186.55 C1066.00614,183.083316 1067.55992,180.808339 1069.80618,179.725 C1072.05245,178.641661 1077.48144,177.883335 1086.09331,177.45 C1098.11704,176.583329 1108.58415,176.258332 1117.49494,176.475 C1126.40574,176.691668 1133.89437,176.8 1139.96107,176.8 C1142.12774,176.8 1143.93093,178.208319 1145.37068,181.025 C1146.81043,183.841681 1147.23405,186.333323 1146.64154,188.5 L1116.80307,281.45 Z M1273.14653,505.05 C1280.94657,505.05 1284.90403,507.216645 1285.01902,511.55 C1285.13401,515.883355 1282.36515,520.541642 1276.71236,525.525 C1271.05957,530.508358 1262.76576,535.166645 1251.8307,539.5 C1240.89563,543.833355 1228.06159,546 1213.32818,546 C1203.36147,546 1196.38442,543.941687 1192.39682,539.825 C1188.40923,535.708313 1186.11389,531.26669 1185.51073,526.5 C1185.1269,523.466652 1185.35062,519.241694 1186.18189,513.825 C1187.01315,508.408306 1188.34228,500.933381 1190.16931,491.4 C1191.99635,481.866619 1194.41585,470.166736 1197.4279,456.3 C1200.43995,442.433264 1204.15145,425.533433 1208.56252,405.6 L1219.61489,354.25 C1221.55159,345.58329 1223.01647,338.325029 1224.00957,332.475 C1225.00267,326.624971 1225.25247,321.75002 1224.75898,317.85 C1224.04616,312.216639 1220.87311,309.4 1215.23975,309.4 C1213.93974,309.4 1211.90751,308.750007 1209.143,307.45 C1206.37849,306.149994 1203.97881,304.308345 1201.94389,301.925 C1199.90897,299.541655 1198.80795,296.833348 1198.64079,293.8 C1198.47363,290.766651 1200.64865,287.408352 1205.16594,283.725 C1209.68322,280.041648 1216.90874,276.358352 1226.84271,272.675 C1236.77669,268.991648 1251.05751,265.416684 1269.68561,261.95 C1279.37817,259.783322 1287.18075,261.516638 1293.0936,267.15 C1299.00645,272.783361 1302.37407,278.849967 1303.19656,285.35 C1304.12871,292.716703 1303.42482,301.70828 1301.08487,312.325 C1298.74491,322.94172 1295.53129,337.783238 1291.44389,356.85 L1268.9279,456.3 C1266.12986,468.433394 1264.42356,477.208306 1263.80896,482.625 C1263.19436,488.041694 1263.10639,492.483316 1263.54505,495.95 C1263.81922,498.116677 1264.62133,500.17499 1265.95141,502.125 C1267.2815,504.07501 1269.67985,505.05 1273.14653,505.05 Z M1258.49421,117 C1274.09429,117 1286.1382,120.574964 1294.62631,127.725 C1303.11442,134.875036 1307.98897,143.433284 1309.25012,153.4 C1309.90811,158.600026 1309.36073,163.691642 1307.60796,168.675 C1305.85519,173.658358 1303.18096,178.208313 1299.58518,182.325 C1295.9894,186.441687 1291.64773,189.799987 1286.56003,192.4 C1281.47233,195.000013 1275.89522,196.3 1269.82852,196.3 C1257.26179,196.3 1246.74824,192.833368 1238.28754,185.9 C1229.82685,178.966632 1224.80151,169.21673 1223.21136,156.65 C1221.95021,146.683284 1224.69871,137.583374 1231.45693,129.35 C1238.21515,121.116625 1247.22749,117 1258.49421,117 Z M1343.1557,539.5 C1337.52234,539.5 1335.27078,537.116691 1336.40097,532.35 L1365.45926,407.55 C1368.0433,397.149948 1370.43805,386.966717 1372.64359,377 C1374.84912,367.033283 1376.71725,357.825042 1378.24803,349.375 C1379.77881,340.924958 1381.04073,333.775029 1382.03383,327.925 C1383.02693,322.074971 1383.3864,318.066677 1383.11223,315.9 C1382.23491,308.966632 1378.97962,305.5 1373.34626,305.5 C1372.04625,305.5 1370.56673,303.225023 1368.90765,298.675 C1367.24857,294.124977 1367.48466,289.141694 1369.61594,283.725 C1371.74721,278.308306 1377.18325,273.325023 1385.92422,268.775 C1394.66519,264.224977 1409.00218,261.95 1428.93561,261.95 C1438.90233,261.95 1446.09737,264.874971 1450.52097,270.725 C1454.94456,276.575029 1457.48531,282.099974 1458.1433,287.3 C1458.74646,292.06669 1457.0017,302.249922 1452.90898,317.85 C1448.81625,333.450078 1443.72518,351.433232 1437.6356,371.8 L1444.06134,376.35 C1447.95071,369.416632 1453.51451,359.450065 1460.75291,346.45 C1467.99131,333.449935 1476.89571,320.775062 1487.46638,308.425 C1498.03704,296.074938 1509.99112,285.241713 1523.32895,275.925 C1536.66679,266.608287 1551.3522,261.95 1567.38561,261.95 C1574.31898,261.95 1580.56379,263.358319 1586.12023,266.175 C1591.67667,268.991681 1596.46232,272.566645 1600.47733,276.9 C1604.49234,281.233355 1607.69546,285.999974 1610.08679,291.2 C1612.47813,296.400026 1613.94793,301.166645 1614.49626,305.5 C1614.93492,308.966684 1614.86066,313.516639 1614.27348,319.15 C1613.68629,324.783362 1612.57383,332.258287 1610.93605,341.575 C1609.29827,350.891713 1606.86506,362.483264 1603.63634,376.35 C1600.40762,390.216736 1596.58779,407.116567 1592.17672,427.05 C1587.17314,449.150111 1583.73047,464.749955 1581.84861,473.85 C1579.96674,482.950046 1579.27257,489.449981 1579.76606,493.35 C1580.69821,500.716703 1583.98092,504.4 1589.61428,504.4 C1590.91429,504.4 1593.15081,505.808319 1596.3239,508.625 C1599.49699,511.441681 1600.36897,514.908313 1598.93987,519.025 C1597.51077,523.141687 1592.22286,527.58331 1583.07597,532.35 C1573.92908,537.116691 1557.71331,541.666645 1534.42818,546 C1524.6808,547.733342 1517.59542,545.675029 1513.17182,539.825 C1508.74823,533.974971 1506.12523,527.800033 1505.30274,521.3 C1504.53509,515.233303 1506.11402,502.883427 1510.03958,484.25 C1513.96515,465.616574 1519.10173,442.000143 1525.4495,413.4 C1527.11736,406.033297 1528.91961,398.01671 1530.85631,389.35 C1532.79301,380.68329 1534.54042,372.233374 1536.09862,364 C1537.65681,355.766626 1538.90503,348.508365 1539.8433,342.225 C1540.78157,335.941635 1541.05878,331.283348 1540.67495,328.25 C1539.46864,318.716619 1534.5322,313.95 1525.86549,313.95 C1521.96547,313.95 1516.81064,316.874971 1510.40084,322.725 C1503.99105,328.575029 1497.02864,336.049954 1489.51341,345.15 C1481.99819,354.250046 1474.62015,364.433277 1467.37909,375.7 C1460.13803,386.966723 1453.92556,397.799948 1448.74151,408.2 C1442.80046,419.466723 1437.52186,429.974951 1432.90556,439.725 C1428.28927,449.475049 1425.25424,457.166639 1423.80038,462.8 L1407.66221,535.6 C1406.96004,536.900007 1406.10842,537.874997 1405.10733,538.525 C1404.10624,539.175003 1401.87238,539.5 1398.4057,539.5 L1343.1557,539.5 Z M1844.53085,474.5 C1846.91686,476.233342 1847.62435,478.399987 1846.65334,481 C1844.38765,487.066697 1840.03759,493.783297 1833.60304,501.15 C1827.16849,508.516704 1819.06793,515.5583 1809.30112,522.275 C1799.5343,528.9917 1788.00557,534.624977 1774.71458,539.175 C1761.42358,543.725023 1746.7616,546 1730.72818,546 C1708.62807,546 1689.6332,539.71673 1673.74298,527.15 C1657.85276,514.583271 1648.42732,496.600117 1645.46636,473.2 C1643.93105,461.066606 1643.6807,447.958404 1644.71533,433.875 C1645.74995,419.791596 1648.36842,405.383407 1652.57081,390.65 C1656.77319,375.916593 1663.06125,361.400071 1671.43516,347.1 C1679.80907,332.799929 1690.37824,319.583394 1703.143,307.45 C1717.42177,293.583264 1733.24839,282.533375 1750.62333,274.3 C1767.99827,266.066625 1786.43551,261.95 1805.93561,261.95 C1824.1357,261.95 1837.68389,266.28329 1846.58058,274.95 C1855.47727,283.61671 1860.72061,294.233271 1862.31076,306.8 C1864.61372,325.000091 1861.53717,340.924932 1853.08102,354.575 C1844.62486,368.225068 1831.549,380.466612 1813.85305,391.3 C1796.91411,401.266716 1780.47197,408.308313 1764.52613,412.425 C1748.58029,416.541687 1734.37905,419.033329 1721.92199,419.9 C1721.00581,422.933349 1720.48584,428.241629 1720.36207,435.825 C1720.2383,443.408371 1720.75215,451.749955 1721.90364,460.85 C1723.32928,472.116723 1727.61001,481.974958 1734.74594,490.425 C1741.88187,498.875042 1751.08306,503.1 1762.34979,503.1 C1778.3832,503.1 1791.79737,499.525036 1802.59269,492.375 C1813.38801,485.224964 1821.94798,477.533375 1828.27287,469.3 C1829.67721,466.699987 1831.32828,466.049993 1833.22612,467.35 L1844.53085,474.5 Z M544.084353,167.341409 C547.274659,178.253729 549,190.076245 549,202.874567 C549,214.707934 545.715972,227.5883 540.015507,239.426579 C539.257567,240.928784 538.520212,242.38445 537.83843,243.680311 C537.122553,244.998911 536.376577,246.300645 535.601792,247.582407 C535.226795,248.133552 534.910808,248.505579 534.669807,248.646769 C517.113338,258.932222 489.233949,276.738779 471.362264,299.903438 C448.784097,329.168477 447.192157,336.07165 438.442407,352.538399 C429.692658,369.005148 422.622855,385.904979 417.232786,403.238399 C411.842718,420.571819 408.050298,437.688314 405.855414,454.588399 C403.660529,471.488483 403.412995,486.654998 405.112805,500.088399 C405.935294,506.588431 408.247006,512.871702 412.04801,518.938399 C415.849015,525.005096 420.32604,530.421708 425.479221,535.188399 C430.632402,539.955089 435.987131,543.746718 441.543569,546.563399 C442.586014,547.091837 443.606931,547.570704 444.606322,548.000001 L308.943518,548 C307.982688,543.71858 307.467344,539.533784 306.865234,535.013672 C305.151367,522.147461 307.359042,508.610599 309.589973,498.493177 L374.763475,202.383663 C391.633596,202.257699 408.412344,202.24426 425.100224,202.343345 C439.029099,202.426048 450.691681,202.101452 460.088205,201.369548 C461.543497,201.401724 462.943375,201.417813 464.287841,201.417813 C483.297862,201.417813 499.274129,198.080998 512.217122,191.407267 C525.160114,184.733536 535.575023,176.947634 543.462159,168.049326 C543.67119,167.813496 543.878588,167.577523 544.084353,167.341409 Z M72.2750106,263.166604 C56.951387,247.242025 47,223.472184 47,202.874567 C47,77.9545837 211.375527,46 298.000866,46 C357.287152,46 452.990961,60.9675864 507.49426,110.461223 C509.418648,112.733358 511.159459,114.657342 512.716732,116.233218 C515.010029,118.462918 516.703068,120.858617 517.795899,123.420386 C518.888731,125.982155 519.542156,128.28123 519.756196,130.31768 C520.569546,138.056189 517.824962,143.286054 511.522362,146.00743 C505.219762,148.728806 497.99567,150.517547 489.849871,151.373705 C482.427253,152.153853 471.525223,152.359443 457.143499,151.990477 C457.098179,151.984255 457.052828,151.978023 457.007444,151.971783 C440.828703,149.747206 422.830124,147.421547 403.011166,144.994736 C378.743055,142.163456 354.87977,139.736681 331.420596,137.714339 C307.961421,135.691996 282.278055,134.68084 254.369727,134.68084 C225.652462,134.68084 201.182483,137.107615 180.959057,141.961237 C160.735631,146.814859 143.748208,153.690721 129.996278,162.589029 C119.075628,169.464994 110.177454,177.14978 103.301489,185.643619 C96.4255239,194.137458 90.9652808,202.63117 86.9205955,211.125009 C82.8759103,219.618848 80.7969574,227.085802 78.426799,235.392999 C76.398775,242.501044 73.1660466,255.702684 72.2750106,263.166604 Z M179.457993,548 L125.437554,548 C99.4423344,548 78.3746754,526.9151 78.3746754,500.937284 L78.3746754,308.883209 C81.3273549,318.270948 86.111713,326.062501 89.5068057,332.738479 C94.1784012,341.924523 99.5736826,349.181335 105.692812,354.509133 C111.811941,359.83693 118.043809,363.299766 124.388602,364.897742 C130.733395,366.495718 136.553089,367.016447 141.847859,366.459945 C155.695718,365.004476 165.492549,360.26874 171.238646,352.252594 C176.984744,344.236448 179.472484,336.56288 178.701942,329.231661 C177.546129,318.234831 173.817593,310.185163 167.516222,305.082414 C161.214852,299.979665 153.991376,297.856401 145.845576,298.712559 C141.365386,299.183446 137.040594,300.152729 132.871069,301.620437 C129.182619,302.918802 125.951243,304.73304 123.176868,307.063195 C113.405724,300.899514 104.3813,291.368579 103.038262,278.21758 C103.82612,262.888218 110.665564,248.984979 123.556707,236.507569 C139.067985,221.494117 162.707578,212.31802 194.476196,208.979004 C207.916765,207.566343 224.047285,206.28274 242.868239,205.128157 C260.216376,204.063924 276.580723,203.627867 291.961696,203.819977 L206.440447,468.365704 C198.755545,491.824878 192.890839,509.216764 188.846154,520.541882 C185.990642,528.537316 181.542244,540.287438 179.457993,548 Z M1724.07879,395.85 C1725.36282,385.449948 1727.41754,374.291726 1730.243,362.375 C1733.06846,350.458274 1736.65353,339.408384 1740.99833,329.225 C1745.34312,319.041616 1750.35422,310.700033 1756.03176,304.2 C1761.70931,297.699968 1767.58134,294.45 1773.64803,294.45 C1781.01474,294.45 1786.08293,296.83331 1788.85277,301.6 C1791.6226,306.366691 1793.33649,311.349974 1793.99448,316.55 C1795.3653,327.383388 1794.51461,337.783284 1791.44241,347.75 C1788.3702,357.716717 1784.53572,365.08331 1779.93885,369.85 C1771.55696,378.950046 1761.57362,385.666645 1749.98856,390 C1738.40349,394.333355 1729.76699,396.283336 1724.07879,395.85 Z" id="Tartine-full-logo"></path>
        </g>
    </g>
</svg>