<?xml version="1.0" encoding="UTF-8"?>
<svg width="1827px" height="502px" viewBox="0 0 1827 502" version="1.1" xmlns="http://www.w3.org/2000/svg" xmlns:xlink="http://www.w3.org/1999/xlink">
    <!-- Generator: Sketch 43.1 (39012) - http://www.bohemiancoding.com/sketch -->
    <title>Tartine full logo white</title>
    <desc>Created with Sketch.</desc>
    <defs></defs>
    <g id="Page-1" stroke="none" stroke-width="1" fill="none" fill-rule="evenodd">
        <g id="Full-Logo-white" transform="translate(-47.000000, -46.000000)" fill="#FFFFFF">
            <path d="M704.67437,258.7 C709.441061,258.7 711.503367,261.299974 710.861352,266.5 C709.13866,273.433368 706.824826,283.399935 703.91978,296.4 C701.014735,309.400065 698.056232,322.833264 695.044184,336.7 C692.032136,350.566736 689.235466,363.566606 686.654091,375.7 C684.072716,387.833394 682.461044,396.499974 681.819029,401.7 C681.281353,404.300013 680.301974,410.258287 678.880861,419.575 C677.459748,428.891713 675.890532,438.749948 674.173165,449.15 C672.455799,459.550052 670.967499,469.191622 669.708221,478.075 C668.448944,486.958378 667.98381,492.699987 668.312805,495.3 C668.970796,500.500026 671.89976,503.1 677.099786,503.1 C679.699799,503.1 682.830389,504.724984 686.49165,507.975 C690.15291,511.225016 691.513054,515.124977 690.572122,519.675 C689.63119,524.225023 684.817726,528.991642 676.131588,533.975 C667.445449,538.958358 652.027802,542.966652 629.878184,546 C620.075965,547.300007 612.909666,545.458358 608.379072,540.475 C603.848478,535.491642 601.254224,530.400026 600.596234,525.2 C600.322071,523.033322 600.318077,520.433348 600.584252,517.4 C600.850428,514.366651 601.466349,509.816697 602.432035,503.75 C603.397721,497.683303 604.874975,489.666716 606.863842,479.7 C608.852709,469.733284 611.649379,456.733413 615.253935,440.7 L608.992693,437.45 C603.75381,447.416717 597.690802,458.574938 590.803488,470.925 C583.916174,483.275062 575.768769,495.083277 566.361029,506.35 C556.953288,517.616723 546.229331,527.041629 534.188836,534.625 C522.148341,542.208371 508.544926,546 493.378184,546 C489.044829,546 484.100007,544.591681 478.543569,541.775 C472.987131,538.958319 467.632402,535.166691 462.479221,530.4 C457.32604,525.633309 452.849015,520.216697 449.04801,514.15 C445.247006,508.083303 442.935294,501.800033 442.112805,495.3 C440.412995,481.866599 440.660529,466.700085 442.855414,449.8 C445.050298,432.899915 448.842718,415.78342 454.232786,398.45 C459.622855,381.11658 466.692658,364.216749 475.442407,347.75 C484.192157,331.283251 494.163509,316.766729 505.356762,304.2 C516.550014,291.63327 528.911332,281.450039 542.441084,273.65 C555.970837,265.849961 570.535534,261.95 586.135612,261.95 C600.869019,261.95 612.234191,264.441642 620.23147,269.425 C628.228748,274.408358 634.722962,279.499974 639.714308,284.7 L647.729103,265.85 C650.159293,261.083309 653.75768,258.7 658.52437,258.7 L704.67437,258.7 Z M516.748606,473.85 C517.68076,481.216704 519.62502,486.308319 522.581445,489.125 C525.53787,491.941681 529.616034,493.35 534.81606,493.35 C539.149415,493.35 545.181949,488.800046 552.913842,479.7 C560.645736,470.599955 568.388559,459.875062 576.142544,447.525 C583.896529,435.174938 591.095029,422.71673 597.738258,410.15 C604.381488,397.583271 608.808467,388.050033 611.019327,381.55 C613.822695,372.88329 616.055612,363.133388 617.718147,352.3 C619.380681,341.466613 619.499123,330.416723 618.073476,319.15 C617.141322,311.783297 613.149795,305.066697 606.098774,299 C599.047753,292.933303 592.272328,289.9 585.772296,289.9 C569.738882,289.9 555.353324,304.633186 542.61519,334.1 C529.822223,363.133479 521.805782,389.67488 518.565625,413.725 C515.325468,437.77512 514.719801,457.816587 516.748606,473.85 Z M766.855699,539.5 C761.222338,539.5 759.025615,537.550019 760.265463,533.65 L778.141215,428.35 C779.589744,419.249955 781.415417,408.850059 783.618289,397.15 C785.821162,385.449942 787.84846,374.075055 789.700246,363.025 C791.552032,351.974945 792.999208,342.008378 794.041817,333.125 C795.084427,324.241622 795.413813,318.283348 795.029985,315.25 C794.591325,311.783316 793.24622,308.858345 790.994631,306.475 C788.743042,304.091655 785.883949,302.9 782.417265,302.9 C781.550594,302.9 779.301701,302.250006 775.670519,300.95 C772.039338,299.649993 770.35686,297.483348 770.623035,294.45 C770.88921,291.416652 774.579558,287.191694 781.69419,281.775 C788.808822,276.358306 802.922488,269.750039 824.035612,261.95 C829.828147,259.783322 834.973263,259.349993 839.471116,260.65 C843.968968,261.950006 847.709759,264.116651 850.6936,267.15 C853.677441,270.183348 856.066076,273.649981 857.859575,277.55 C859.653075,281.450019 860.741722,284.916651 861.12555,287.95 C861.893206,294.016697 860.51457,304.524925 856.9896,319.475 C853.46463,334.425075 849.145588,352.51656 844.032345,373.75 L851.675836,377.65 C854.424372,368.549955 858.442774,357.500065 863.731165,344.5 C869.019556,331.499935 875.215649,318.825062 882.319631,306.475 C889.423613,294.124938 897.843845,283.61671 907.580581,274.95 C917.317317,266.28329 928.035554,261.95 939.735612,261.95 C949.268993,261.95 958.238479,265.199968 966.644339,271.7 C975.050199,278.200032 979.911047,286.649948 981.227029,297.05 C981.939852,302.683362 981.650259,308.099974 980.35824,313.3 C979.066221,318.500026 977.150313,323.04998 974.610457,326.95 C972.070602,330.850019 969.312789,333.883322 966.336935,336.05 C963.361082,338.216677 960.356526,339.3 957.323178,339.3 C948.223132,339.3 940.853877,337.566684 935.21519,334.1 L926.757203,328.9 C923.937859,327.166658 920.361564,326.3 916.028209,326.3 C910.828183,326.3 905.334648,329.116638 899.547439,334.75 C893.760229,340.383361 888.15131,347.424958 882.720513,355.875 C877.289716,364.325042 872.279952,373.533283 867.691072,383.5 C863.102192,393.466716 859.595372,402.566626 857.170507,410.8 C854.690809,418.600039 852.320812,427.266619 850.060445,436.8 C847.800077,446.333381 845.487575,457.166606 843.122867,469.3 L830.62996,534.95 C829.713782,537.983348 827.089054,539.5 822.755699,539.5 L766.855699,539.5 Z M1126.80307,281.45 L1192.45307,281.45 C1195.91975,281.45 1197.24982,283.399981 1196.4433,287.3 L1194.03176,304.2 C1193.22525,308.10002 1190.65535,310.05 1186.322,310.05 L1120.672,310.05 L1085.46666,453.05 C1084.3913,458.250026 1083.20897,464.316632 1081.91961,471.25 C1080.63026,478.183368 1080.23233,483.599981 1080.72582,487.5 C1081.16448,490.966684 1082.72625,493.891655 1085.41118,496.275 C1088.0961,498.658345 1091.82185,499.85 1096.58854,499.85 C1098.75522,499.85 1101.74873,500.391661 1105.56917,501.475 C1109.3896,502.558339 1112.70944,503.966658 1115.52878,505.7 C1118.34812,507.433342 1119.82764,509.708319 1119.96739,512.525 C1120.10713,515.341681 1117.78265,518.374984 1112.99387,521.625 C1108.20509,524.875016 1100.32957,528.558313 1089.36709,532.675 C1078.40461,536.791687 1062.82513,541.23331 1042.62818,546 C1037.15932,547.300007 1032.28437,547.300007 1028.00318,546 C1023.722,544.699993 1020.00862,542.750013 1016.86295,540.15 C1013.71727,537.549987 1011.18051,534.625016 1009.25259,531.375 C1007.32468,528.124984 1006.19624,525.200013 1005.86724,522.6 C1005.04475,516.099968 1004.73652,509.383368 1004.94254,502.45 C1005.14856,495.516632 1006.14031,488.800033 1007.91784,482.3 L1045.272,310.05 L994.571998,310.05 C990.238643,310.05 988.637081,307.66669 989.767265,302.9 L991.528805,286 C992.444983,282.966651 994.636382,281.45 998.103066,281.45 L1052.05307,281.45 L1075.14479,186.55 C1076.00614,183.083316 1077.55992,180.808339 1079.80618,179.725 C1082.05245,178.641661 1087.48144,177.883335 1096.09331,177.45 C1108.11704,176.583329 1118.58415,176.258332 1127.49494,176.475 C1136.40574,176.691668 1143.89437,176.8 1149.96107,176.8 C1152.12774,176.8 1153.93093,178.208319 1155.37068,181.025 C1156.81043,183.841681 1157.23405,186.333323 1156.64154,188.5 L1126.80307,281.45 Z M1283.14653,505.05 C1290.94657,505.05 1294.90403,507.216645 1295.01902,511.55 C1295.13401,515.883355 1292.36515,520.541642 1286.71236,525.525 C1281.05957,530.508358 1272.76576,535.166645 1261.8307,539.5 C1250.89563,543.833355 1238.06159,546 1223.32818,546 C1213.36147,546 1206.38442,543.941687 1202.39682,539.825 C1198.40923,535.708313 1196.11389,531.26669 1195.51073,526.5 C1195.1269,523.466652 1195.35062,519.241694 1196.18189,513.825 C1197.01315,508.408306 1198.34228,500.933381 1200.16931,491.4 C1201.99635,481.866619 1204.41585,470.166736 1207.4279,456.3 C1210.43995,442.433264 1214.15145,425.533433 1218.56252,405.6 L1229.61489,354.25 C1231.55159,345.58329 1233.01647,338.325029 1234.00957,332.475 C1235.00267,326.624971 1235.25247,321.750019 1234.75898,317.85 C1234.04616,312.216638 1230.87311,309.4 1225.23975,309.4 C1223.93974,309.4 1221.90751,308.750006 1219.143,307.45 C1216.37849,306.149993 1213.97881,304.308345 1211.94389,301.925 C1209.90897,299.541655 1208.80795,296.833348 1208.64079,293.8 C1208.47363,290.766651 1210.64865,287.408352 1215.16594,283.725 C1219.68322,280.041648 1226.90874,276.358352 1236.84271,272.675 C1246.77669,268.991648 1261.05751,265.416684 1279.68561,261.95 C1289.37817,259.783322 1297.18075,261.516638 1303.0936,267.15 C1309.00645,272.783361 1312.37407,278.849967 1313.19656,285.35 C1314.12871,292.716703 1313.42482,301.70828 1311.08487,312.325 C1308.74491,322.94172 1305.53129,337.783238 1301.44389,356.85 L1278.9279,456.3 C1276.12986,468.433394 1274.42356,477.208306 1273.80896,482.625 C1273.19436,488.041694 1273.10639,492.483316 1273.54505,495.95 C1273.81922,498.116677 1274.62133,500.17499 1275.95141,502.125 C1277.2815,504.07501 1279.67985,505.05 1283.14653,505.05 Z M1268.49421,117 C1284.09429,117 1296.1382,120.574964 1304.62631,127.725 C1313.11442,134.875036 1317.98897,143.433284 1319.25012,153.4 C1319.90811,158.600026 1319.36073,163.691642 1317.60796,168.675 C1315.85519,173.658358 1313.18096,178.208313 1309.58518,182.325 C1305.9894,186.441687 1301.64773,189.799987 1296.56003,192.4 C1291.47233,195.000013 1285.89522,196.3 1279.82852,196.3 C1267.26179,196.3 1256.74824,192.833368 1248.28754,185.9 C1239.82685,178.966632 1234.80151,169.21673 1233.21136,156.65 C1231.95021,146.683284 1234.69871,137.583374 1241.45693,129.35 C1248.21515,121.116625 1257.22749,117 1268.49421,117 Z M1353.1557,539.5 C1347.52234,539.5 1345.27078,537.116691 1346.40097,532.35 L1375.45926,407.55 C1378.0433,397.149948 1380.43805,386.966717 1382.64359,377 C1384.84912,367.033283 1386.71725,357.825042 1388.24803,349.375 C1389.77881,340.924958 1391.04073,333.775029 1392.03383,327.925 C1393.02693,322.074971 1393.3864,318.066677 1393.11223,315.9 C1392.23491,308.966632 1388.97962,305.5 1383.34626,305.5 C1382.04625,305.5 1380.56673,303.225023 1378.90765,298.675 C1377.24857,294.124977 1377.48466,289.141694 1379.61594,283.725 C1381.74721,278.308306 1387.18325,273.325023 1395.92422,268.775 C1404.66519,264.224977 1419.00218,261.95 1438.93561,261.95 C1448.90233,261.95 1456.09737,264.874971 1460.52097,270.725 C1464.94456,276.575029 1467.48531,282.099974 1468.1433,287.3 C1468.74646,292.06669 1467.0017,302.249922 1462.90898,317.85 C1458.81625,333.450078 1453.72518,351.433231 1447.6356,371.8 L1454.06134,376.35 C1457.95071,369.416632 1463.51451,359.450065 1470.75291,346.45 C1477.99131,333.449935 1486.89571,320.775062 1497.46638,308.425 C1508.03704,296.074938 1519.99112,285.241713 1533.32895,275.925 C1546.66679,266.608287 1561.3522,261.95 1577.38561,261.95 C1584.31898,261.95 1590.56379,263.358319 1596.12023,266.175 C1601.67667,268.991681 1606.46232,272.566645 1610.47733,276.9 C1614.49234,281.233355 1617.69546,285.999974 1620.08679,291.2 C1622.47813,296.400026 1623.94793,301.166645 1624.49626,305.5 C1624.93492,308.966684 1624.86066,313.516639 1624.27348,319.15 C1623.68629,324.783362 1622.57383,332.258287 1620.93605,341.575 C1619.29827,350.891713 1616.86506,362.483264 1613.63634,376.35 C1610.40762,390.216736 1606.58779,407.116567 1602.17672,427.05 C1597.17314,449.150111 1593.73047,464.749955 1591.84861,473.85 C1589.96674,482.950046 1589.27257,489.449981 1589.76606,493.35 C1590.69821,500.716703 1593.98092,504.4 1599.61428,504.4 C1600.91429,504.4 1603.15081,505.808319 1606.3239,508.625 C1609.49699,511.441681 1610.36897,514.908313 1608.93987,519.025 C1607.51077,523.141687 1602.22286,527.58331 1593.07597,532.35 C1583.92908,537.116691 1567.71331,541.666645 1544.42818,546 C1534.6808,547.733342 1527.59542,545.675029 1523.17182,539.825 C1518.74823,533.974971 1516.12523,527.800033 1515.30274,521.3 C1514.53509,515.233303 1516.11402,502.883427 1520.03958,484.25 C1523.96515,465.616574 1529.10173,442.000143 1535.4495,413.4 C1537.11736,406.033297 1538.91961,398.01671 1540.85631,389.35 C1542.79301,380.68329 1544.54042,372.233374 1546.09862,364 C1547.65681,355.766626 1548.90503,348.508365 1549.8433,342.225 C1550.78157,335.941635 1551.05878,331.283348 1550.67495,328.25 C1549.46864,318.716619 1544.5322,313.95 1535.86549,313.95 C1531.96547,313.95 1526.81064,316.874971 1520.40084,322.725 C1513.99105,328.575029 1507.02864,336.049954 1499.51341,345.15 C1491.99819,354.250046 1484.62015,364.433277 1477.37909,375.7 C1470.13803,386.966723 1463.92556,397.799948 1458.74151,408.2 C1452.80046,419.466723 1447.52186,429.974951 1442.90556,439.725 C1438.28927,449.475049 1435.25424,457.166639 1433.80038,462.8 L1417.66221,535.6 C1416.96004,536.900007 1416.10842,537.874997 1415.10733,538.525 C1414.10624,539.175003 1411.87238,539.5 1408.4057,539.5 L1353.1557,539.5 Z M1854.53085,474.5 C1856.91686,476.233342 1857.62435,478.399987 1856.65334,481 C1854.38765,487.066697 1850.03759,493.783297 1843.60304,501.15 C1837.16849,508.516704 1829.06793,515.5583 1819.30112,522.275 C1809.5343,528.9917 1798.00557,534.624977 1784.71458,539.175 C1771.42358,543.725023 1756.7616,546 1740.72818,546 C1718.62807,546 1699.6332,539.71673 1683.74298,527.15 C1667.85276,514.583271 1658.42732,496.600117 1655.46636,473.2 C1653.93105,461.066606 1653.6807,447.958404 1654.71533,433.875 C1655.74995,419.791596 1658.36842,405.383407 1662.57081,390.65 C1666.77319,375.916593 1673.06125,361.400071 1681.43516,347.1 C1689.80907,332.799928 1700.37824,319.583394 1713.143,307.45 C1727.42177,293.583264 1743.24839,282.533374 1760.62333,274.3 C1777.99827,266.066625 1796.43551,261.95 1815.93561,261.95 C1834.1357,261.95 1847.68389,266.28329 1856.58058,274.95 C1865.47727,283.61671 1870.72061,294.23327 1872.31076,306.8 C1874.61372,325.000091 1871.53717,340.924932 1863.08102,354.575 C1854.62486,368.225068 1841.549,380.466612 1823.85305,391.3 C1806.91411,401.266716 1790.47197,408.308313 1774.52613,412.425 C1758.58029,416.541687 1744.37905,419.033329 1731.92199,419.9 C1731.00581,422.933349 1730.48584,428.241629 1730.36207,435.825 C1730.2383,443.408371 1730.75215,451.749955 1731.90364,460.85 C1733.32928,472.116723 1737.61001,481.974958 1744.74594,490.425 C1751.88187,498.875042 1761.08306,503.1 1772.34979,503.1 C1788.3832,503.1 1801.79737,499.525036 1812.59269,492.375 C1823.38801,485.224964 1831.94798,477.533375 1838.27287,469.3 C1839.67721,466.699987 1841.32828,466.049993 1843.22612,467.35 L1854.53085,474.5 Z M544.084353,167.341409 C547.274659,178.253729 549,190.076245 549,202.874567 C549,209.922859 547.834914,217.342599 545.688075,224.692335 C543.527801,230.928073 540.706148,236.130044 538.987832,237.136719 C521.431363,247.422171 489.233949,276.738779 471.362264,299.903438 C448.784097,329.168477 447.192157,336.07165 438.442407,352.538399 C429.692658,369.005148 422.622855,385.904979 417.232786,403.238399 C411.842718,420.571819 408.050298,437.688314 405.855414,454.588399 C403.660529,471.488483 403.412995,486.654998 405.112805,500.088399 C405.935294,506.588431 408.247006,512.871702 412.04801,518.938399 C415.849015,525.005096 420.32604,530.421708 425.479221,535.188399 C430.632402,539.955089 435.987131,543.746718 441.543569,546.563399 C442.586014,547.091837 443.606931,547.570704 444.606322,548.000001 L308.943518,548 C307.982688,543.71858 307.467344,539.533784 306.865234,535.013672 C305.151367,522.147461 307.359042,508.610599 309.589973,498.493177 L374.763475,202.383663 C391.633596,202.257699 408.412344,202.24426 425.100224,202.343345 C439.029099,202.426048 450.691681,202.101452 460.088205,201.369548 C461.543497,201.401724 462.943375,201.417813 464.287841,201.417813 C483.297862,201.417813 499.274129,198.080998 512.217122,191.407267 C525.160114,184.733536 535.575023,176.947634 543.462159,168.049326 C543.67119,167.813496 543.878588,167.577523 544.084353,167.341409 Z M72.2750106,263.166604 C56.951387,247.242025 47,223.472184 47,202.874567 C47,77.9545837 211.375527,46 298.000866,46 C357.287152,46 452.990961,60.9675864 507.49426,110.461223 C509.418648,112.733358 511.159459,114.657342 512.716732,116.233218 C515.010029,118.462918 516.703068,120.858617 517.795899,123.420386 C518.888731,125.982155 519.542156,128.28123 519.756196,130.31768 C520.569546,138.056189 517.824962,143.286054 511.522362,146.00743 C505.219762,148.728806 497.99567,150.517547 489.849871,151.373705 C482.427253,152.153853 471.525223,152.359443 457.143499,151.990477 C457.098179,151.984255 457.052828,151.978023 457.007444,151.971783 C440.828703,149.747206 422.830124,147.421547 403.011166,144.994736 C378.743055,142.163456 354.87977,139.736681 331.420596,137.714339 C307.961421,135.691996 282.278055,134.68084 254.369727,134.68084 C225.652462,134.68084 201.182483,137.107615 180.959057,141.961237 C160.735631,146.814859 143.748208,153.690721 129.996278,162.589029 C119.075628,169.464994 110.177454,177.14978 103.301489,185.643619 C96.4255239,194.137458 90.9652808,202.63117 86.9205955,211.125009 C82.8759103,219.618848 80.7969574,227.085802 78.426799,235.392999 C76.398775,242.501044 73.1660466,255.702684 72.2750106,263.166604 Z M179.457993,548 L125.437554,548 C99.4423344,548 78.3746754,526.9151 78.3746754,500.937284 L78.3746754,308.883209 C81.3273549,318.270948 86.111713,326.062501 89.5068057,332.738479 C94.1784012,341.924523 99.5736826,349.181335 105.692812,354.509133 C111.811941,359.83693 118.043809,363.299766 124.388602,364.897742 C130.733395,366.495718 136.553089,367.016447 141.847859,366.459945 C155.695718,365.004476 165.492549,360.26874 171.238646,352.252594 C176.984744,344.236448 179.472484,336.56288 178.701942,329.231661 C177.546129,318.234831 173.817593,310.185163 167.516222,305.082414 C161.214852,299.979665 153.991376,297.856401 145.845576,298.712559 C141.365386,299.183446 137.040594,300.152729 132.871069,301.620437 C129.182619,302.918802 125.951243,304.73304 123.176868,307.063195 C113.405724,300.899514 104.3813,291.368579 103.038262,278.21758 C103.82612,262.888218 110.665564,248.984979 123.556707,236.507569 C139.067985,221.494117 162.707578,212.31802 194.476196,208.979004 C207.916765,207.566343 224.047285,206.28274 242.868239,205.128157 C260.216376,204.063924 276.580723,203.627867 291.961696,203.819977 L206.440447,468.365704 C198.755545,491.824878 192.890839,509.216764 188.846154,520.541882 C185.990642,528.537316 181.542244,540.287438 179.457993,548 Z M1734.07879,395.85 C1735.36282,385.449948 1737.41754,374.291726 1740.243,362.375 C1743.06846,350.458274 1746.65353,339.408384 1750.99833,329.225 C1755.34312,319.041616 1760.35422,310.700033 1766.03176,304.2 C1771.70931,297.699967 1777.58134,294.45 1783.64803,294.45 C1791.01474,294.45 1796.08293,296.83331 1798.85277,301.6 C1801.6226,306.366691 1803.33649,311.349974 1803.99448,316.55 C1805.3653,327.383387 1804.51461,337.783283 1801.44241,347.75 C1798.3702,357.716717 1794.53572,365.08331 1789.93885,369.85 C1781.55696,378.950046 1771.57362,385.666645 1759.98856,390 C1748.40349,394.333355 1739.76699,396.283336 1734.07879,395.85 Z" id="Tartine-full-logo-white"></path>
        </g>
    </g>
</svg>