<?xml version="1.0" standalone="no"?>
<!DOCTYPE svg PUBLIC "-//W3C//DTD SVG 20010904//EN"
 "http://www.w3.org/TR/2001/REC-SVG-20010904/DTD/svg10.dtd">
<svg version="1.0" xmlns="http://www.w3.org/2000/svg"
 width="700.000000pt" height="700.000000pt" viewBox="0 0 700.000000 700.000000"
 preserveAspectRatio="xMidYMid meet">
<metadata>
Created by potrace 1.11, written by Peter Selinger 2001-2013
</metadata>
<g transform="translate(0.000000,700.000000) scale(0.100000,-0.100000)"
fill="#000000" stroke="none">
<path d="M3238 6995 c-2 -1 -52 -6 -113 -9 -107 -7 -157 -11 -240 -21 -22 -3
-62 -8 -90 -10 -27 -3 -93 -12 -145 -20 -52 -8 -113 -17 -135 -20 -117 -18
-377 -74 -545 -120 -957 -257 -1589 -712 -1844 -1329 -38 -92 -91 -280 -102
-361 -3 -27 -8 -59 -11 -70 -11 -49 -9 -307 3 -385 32 -212 153 -468 299 -634
38 -44 37 -46 55 54 17 99 84 353 123 465 103 301 303 576 553 761 65 48 268
174 280 174 2 0 39 16 81 36 120 56 369 139 473 158 14 3 68 13 120 24 102 22
304 48 435 57 44 3 105 8 135 11 134 11 863 4 1040 -11 30 -2 102 -7 160 -10
58 -3 127 -8 154 -11 27 -2 77 -7 110 -9 59 -5 133 -12 206 -20 19 -2 73 -7
120 -11 47 -3 92 -7 100 -9 8 -2 47 -6 85 -10 39 -3 86 -8 105 -10 83 -10 209
-24 265 -30 33 -3 71 -8 85 -10 28 -4 106 -14 160 -21 19 -2 51 -6 70 -9 19
-3 55 -7 80 -10 25 -3 62 -8 82 -10 64 -10 101 -14 157 -21 30 -3 64 -8 75
-11 36 -10 457 -11 546 -2 79 8 234 42 269 59 9 4 34 16 55 26 105 51 129 220
48 341 -138 207 -530 476 -937 643 -71 29 -143 58 -160 65 -44 18 -301 102
-370 120 -81 22 -215 56 -240 61 -11 2 -29 6 -40 8 -106 24 -343 68 -425 80
-158 22 -264 34 -365 42 -44 3 -96 8 -115 10 -38 5 -647 14 -652 9z"/>
<path d="M6847 5225 c-153 -145 -390 -286 -557 -330 -86 -23 -122 -31 -190
-40 -30 -4 -64 -9 -74 -11 -11 -2 -99 -6 -195 -10 -97 -3 -210 -7 -251 -9 -41
-2 -285 -4 -542 -4 l-468 -1 -5 -23 c-6 -24 -7 -26 -19 -92 -5 -22 -16 -74
-26 -115 -10 -41 -26 -111 -35 -155 -9 -44 -18 -87 -20 -95 -8 -32 -133 -603
-140 -635 -2 -11 -27 -123 -55 -250 -28 -126 -64 -293 -81 -370 -17 -77 -32
-147 -34 -155 -20 -88 -45 -200 -49 -220 -2 -14 -10 -47 -16 -75 -6 -27 -14
-59 -16 -70 -2 -11 -6 -29 -8 -40 -3 -11 -12 -53 -21 -94 -9 -41 -18 -77 -20
-80 -1 -3 -6 -23 -9 -44 -3 -21 -13 -66 -21 -100 -14 -59 -79 -355 -89 -407
-3 -14 -25 -117 -51 -230 -25 -113 -47 -214 -49 -225 -3 -11 -29 -132 -60
-270 -84 -382 -105 -478 -111 -531 -4 -27 -9 -62 -11 -79 -3 -16 -5 -82 -5
-145 0 -103 6 -164 27 -283 l7 -37 1166 1 c956 1 1178 3 1231 15 257 55 474
294 507 559 3 28 6 786 7 1685 l1 1635 72 72 c175 176 299 418 347 676 16 91
15 335 -3 437 -16 92 -42 204 -50 212 -3 3 -41 -27 -84 -67z"/>
<path d="M3017 4794 c-1 -1 -78 -5 -172 -9 -93 -3 -186 -8 -205 -10 -38 -3
-176 -14 -280 -21 -36 -2 -89 -6 -117 -9 -29 -3 -79 -7 -110 -10 -64 -6 -150
-16 -173 -20 -8 -1 -37 -6 -65 -9 -152 -22 -370 -85 -503 -147 -353 -163 -603
-488 -605 -784 0 -129 78 -267 211 -367 l62 -47 48 30 c82 52 202 83 323 83
240 -1 407 -199 403 -477 -2 -104 -68 -241 -156 -326 -142 -135 -429 -178
-656 -98 -116 41 -268 170 -356 304 -60 92 -216 398 -216 424 0 11 -3 18 -7
16 -9 -6 -8 -2668 0 -2742 27 -223 192 -440 397 -523 117 -47 168 -52 600 -52
l405 0 54 158 c30 86 69 200 87 252 76 218 258 765 343 1030 51 157 96 296
101 310 5 14 50 153 100 310 50 157 98 303 105 325 8 22 36 110 63 195 28 85
77 238 110 340 33 102 104 320 157 485 53 165 100 311 105 325 5 14 54 167
110 340 174 539 191 593 211 648 31 87 44 81 -177 79 -107 -1 -196 -2 -197 -3z"/>
</g>
</svg>
